name="Avatar - Four Nations Restored"
archive="mod/avatar - four nations restored.zip"
replace_path="history/provinces"
replace_path="history/titles"
replace_path="history/offmap_powers"
replace_path="common/landed_titles"
replace_path="common/bookmarks"
replace_path="history/characters"
replace_path="history/wars"
replace_path="history/diplomacy"
replace_path="history/technology"
replace_path="common/religions"
replace_path="common/cultures"
replace_path="common/dynasties"
replace_path="common/laws"
replace_path="common/governments"
replace_path="common/province_setup"
replace_path="localisation"
replace_path="decisions"
replace_path="events"
replace_path="music"
replace_path="gfx/loadingscreens"
user_dir="Avatar - Four Nations Restored"
tags={mod fantasy overhaul avatar}
picture="image.jpg"
