####################
#DEATH BY EXECUTION:
####################
#Executions are randomized from this list
#An additive modifier is also available, as seen in the example below
#
#execution_method = {
#	death = death_platypus
#	weight_multiplier = {
#		factor = 1
#		modifier = {
#			factor = 0.5
#			FROM = {
#				trait = proud
#			}
#		}
#		additive_modifier = {
#			value = 50
#			ROOT = {
#				has_character_modifier = the_dungeon
#			}
#		}
#	}
#	trigger = {
#		always = yes
#	}
#}
####################

execution_method = {
	death = death_execution_crushing
	weight_multiplier = {
		factor = 200
	}
	trigger = {
		FROM = {
			OR = {
				trait = cruel
				trait = wroth
 				culture = sun_warrior
			}
		}
	}
}

execution_method = {
	death = death_execution_ash
	weight_multiplier = {
		factor = 300
		modifier = {
			factor = 2
			trait = homosexual
		}
	}
	trigger = {
		FROM = {
			culture = sun_warrior
		}
	}
}

execution_method = {
	death = death_execution_burning
	weight_multiplier = {
		factor = 150
		modifier = {
			factor = 2
			is_female = yes
		}
		modifier = {
			factor = 2
			trait = kinslayer
		}
		modifier = {
			factor = 4
			is_heresy_of = FROM
		}
		modifier = {
			factor = 2
			FROM = {
				OR = {
					has_opinion_modifier = { who = ROOT modifier = opinion_traitor } 
					has_opinion_modifier = { who = ROOT modifier = opinion_rebel_traitor } 
					has_opinion_modifier = { who = ROOT modifier = opinion_regicide_traitor } 
					has_opinion_modifier = { who = ROOT modifier = opinion_killed_close_kin } 
					has_opinion_modifier = { who = ROOT modifier = opinion_witch } 
					has_opinion_modifier = { who = ROOT modifier = opinion_takfir } 
					has_opinion_modifier = { who = ROOT modifier = opinion_unfaithful_wife } 
					has_opinion_modifier = { who = ROOT modifier = opinion_cuckolded } 
					has_opinion_modifier = { who = ROOT modifier = opinion_charge_heresiarch } 
					has_opinion_modifier = { who = ROOT modifier = opinion_charge_infidel } 
					has_opinion_modifier = { who = ROOT modifier = opinion_charge_deviant } 
					has_opinion_modifier = { who = ROOT modifier = opinion_charge_traitor } 
				}
			}
		}
	}
	trigger = {
		FROM = {
			NOT = { is_nomadic = yes }
		}
	}
}

execution_method = {
	death = death_execution_hdq
	weight_multiplier = {
		factor = 200
		modifier = {
			factor = 4
			FROM = {
				OR = {
					has_opinion_modifier = { who = ROOT modifier = declared_war } 
					has_opinion_modifier = { who = ROOT modifier = opinion_dishonorable } 
					has_opinion_modifier = { who = ROOT modifier = opinion_traitor } 
					has_opinion_modifier = { who = ROOT modifier = opinion_rebel_traitor } 
					has_opinion_modifier = { who = ROOT modifier = opinion_regicide_traitor } 
					has_opinion_modifier = { who = ROOT modifier = opinion_killed_close_kin } 
					has_opinion_modifier = { who = ROOT modifier = opinion_refused_abdicate_title } 
					has_opinion_modifier = { who = ROOT modifier = opinion_refused_order }
					has_opinion_modifier = { who = ROOT modifier = opinion_witch } 
					has_opinion_modifier = { who = ROOT modifier = opinion_takfir } 
					has_opinion_modifier = { who = ROOT modifier = opinion_unfaithful_wife } 
					has_opinion_modifier = { who = ROOT modifier = opinion_cuckolded } 
					has_opinion_modifier = { who = ROOT modifier = opinion_charge_heresiarch } 
					has_opinion_modifier = { who = ROOT modifier = opinion_charge_infidel } 
					has_opinion_modifier = { who = ROOT modifier = opinion_charge_deviant } 
					has_opinion_modifier = { who = ROOT modifier = opinion_charge_traitor } 
					has_opinion_modifier = { who = ROOT modifier = opinion_charge_slanderer } 
					has_opinion_modifier = { who = ROOT modifier = abuse_of_office } 
				}
			}
		}
		modifier = {
			factor = 0.5
			FROM = {
				OR = {
					trait = kind
					trait = temperate
					trait = charitable
				}
			}
		}
	}
	trigger = {
		FROM = {
			OR = {
				trait = cruel
				trait = wroth
	 			culture_group = earth_kingdom_culture
			}
			NOR = {
				is_nomadic = yes
				is_tribal = yes
			}
			NOR = {
				culture = sun_warrior
			}
		}
	}
}

execution_method = {
	death = death_execution_disembowelment
	weight_multiplier = {
		factor = 200
	}
	trigger = {
		FROM = {
			OR = {
				trait = cruel
				trait = wroth
 				culture = sun_warrior
			}
			NOT = { is_nomadic = yes }
		}
	}
}

execution_method = {
	death = death_execution_boiling
	weight_multiplier = {
		factor = 200
	}
	trigger = {
		FROM = {
			AND = {
				culture_group = fire_nation_culture
				trait = cruel
				NOT = { is_nomadic = yes }
			}
		}
	}
}

execution_method = {
	death = death_execution_sawing
	weight_multiplier = {
		factor = 200
	}
	trigger = {
		FROM = {
			trait = cruel
			NOT = { is_nomadic = yes }
		}
	}
}

execution_method = {
	death = death_execution_hunt
	weight_multiplier = {
		factor = 400
	}
	trigger = {
		FROM = {
			OR = {
				trait = gamer
				trait = hunter
			}
		}
	}
}

execution_method = {
	death = death_execution_live_burial
	weight_multiplier = {
		factor = 200
		modifier = {
			factor = 3
			FROM = {
				trait = gardener
			}
		}
	}
	trigger = {
		FROM = {
			OR = {
				trait = gardener
				trait = cruel
				trait = wroth
			}
		}
	}
}

execution_method = {
	death = death_execution_hanging
	weight_multiplier = {
		factor = 200
		modifier = {
			factor = 2
			FROM = {
				trait = kind
			}
		}
		modifier = {
			factor = 2
			FROM = {
				trait = temperate
			}
		}
		modifier = {
			factor = 2
			FROM = {
				trait = charitable
			}
		}
		modifier = {
			factor = 4
			is_lowborn = yes
		}
	}
	trigger = {
		FROM = {
			NOT = { is_nomadic = yes }
			NOT = { culture = sun_warrior }
		}
	}
}

execution_method = {
	death = death_execution_immurement
	weight_multiplier = {
		factor = 200
		modifier = {
			factor = 3
			FROM = {
				trait = architect
			}
		}
	}
	trigger = {
		FROM = {
			OR = {
				trait = wroth
				trait = cruel
				trait = architect
			}
			NOR = {
				is_nomadic = yes
				is_tribal = yes
			}
		}
	}
}

execution_method = {
	death = death_execution_beheading
	weight_multiplier = {
		factor = 300
		modifier = {
			factor = 3
			FROM = {
				trait = kind
			}
		}
		modifier = {
			factor = 2
			FROM = {
				trait = temperate
			}
		}
		modifier = {
			factor = 2
			FROM = {
				trait = charitable
			}
		}
	}
	trigger = {
		is_lowborn = no
		FROM = {
			NOT = { is_nomadic = yes }
		}
	}
}

execution_method = {
	death = death_execution_wine
	weight_multiplier = {
		factor = 250
	}
	trigger = {
		AND = {
			FROM = {
				OR = {
					trait = hedonist
					trait = drunkard
				}
				NOT = { culture = sun_warrior }
			}
			is_lowborn = no
		}
	}
}

execution_method = {
	death = death_execution_flaying
	weight_multiplier = {
		factor = 200
		modifier = {
			factor = 2
			FROM = {
				trait = hunter
			}
		}
	}
	trigger = {
		FROM = {
			AND = {
				OR = {
					trait = hunter
					trait = cruel
				}
				NOT = {
					trait = kind
				}
				NOT = { is_nomadic = yes }
			}
		}
	}
}

execution_method = {
	death = death_execution_impaling
	weight_multiplier = {
		factor = 1200
	}
	trigger = {
		FROM = {
			trait = impaler
		}
	}
}

execution_method = {
	death = death_execution_bamboo
	weight_multiplier = {
		factor = 300
	}
	trigger = {
		FROM = {
			AND = {
				OR = {
					trait = cruel
					trait = wroth
				}
				OR = {
					culture_group = earth_kingdom_culture
					culture_group = air_nomad_culture
				}
			}
		}
	}
}

execution_method = {
	death = death_execution_stoning
	weight_multiplier = {
		factor = 100
		modifier = {
			factor = 2
			FROM = {
				trait = cruel
			}
		}
		modifier = {
			factor = 2
			FROM = {
				trait = wroth
			}
		}
		modifier = {
			factor = 4
			trait = homosexual
		}
		modifier = {
			factor = 4
			FROM = { culture_group = earth_kingdom_culture }
		}
	}
	trigger = {
		FROM = {
			OR = {
				culture = sun_warrior
				culture_group = earth_kingdom_culture
			}
		}
	}
}

execution_method = {
	death = death_execution_crucifixion
	weight_multiplier = {
		factor = 200
	}
	trigger = {
		FROM = {
			AND = {
				OR = {
					trait = cruel
					trait = wroth
				}
				OR = {
					culture_group = earth_kingdom_culture
					culture_group = air_nomad_culture
				}
			}
		}
	}
}

execution_method = {
	death = death_execution_scaphism
	weight_multiplier = {
		factor = 250
		modifier = {
			factor = 2
			FROM = {
				trait = cruel
			}
		}
		modifier = {
			factor = 2
			FROM = {
				trait = wroth
			}
		}
	}
	trigger = {
		FROM = {
			culture = sandbender
		}
	}
}

execution_method = {
	death = death_execution_drowning_pit
	weight_multiplier = {
		factor = 250
	}
	trigger = {
		FROM = {
			culture_group = water_tribe_culture
		}
	}
}

execution_method = {
	death = death_execution_garrotting
	weight_multiplier = {
		factor = 300
	}
	trigger = {
		FROM = {
			culture_group = air_nomad_culture
		}
	}
}

execution_method = {
	death = death_execution_back_breaking
	weight_multiplier = {
		factor = 700
	}
	trigger = {
		is_lowborn = no
		FROM = {
			is_nomadic = yes
		}
	}
}

execution_method = {
	death = death_execution_wheel
	weight_multiplier = {
		factor = 250
	}
	trigger = {
		FROM = {
			trait = cruel
			NOR = {
				is_nomadic = yes
				is_tribal = yes
			}
		}
	}
}
