decisions = {
	
	feast_0 = {
		potential = {
			is_ruler = yes
			is_feudal = yes
			prisoner = no
			NOT = {
				has_character_modifier = holding_large_feast
			}
			NOT = {
				has_character_modifier = large_feast_timer
			}
			NOT = {
				has_character_modifier = fabulous_feast
			}
			NOT = {
				has_character_flag = guest_feast_started
			}
			NOT = {
				liege = {
					has_character_modifier = holding_large_feast
				}
			}			
			num_of_vassals = 1
			NOT = { has_character_flag = do_not_disturb }
		}
		allow = {
			war = no
			any_demesne_title = {
				is_occupied = no
			}
			prisoner = no
			wealth = 25
			month = 10
			prestige = 100
		}
		effect = {
			wealth = -25
			add_character_modifier = {
				name = holding_large_feast
				duration = -1
			}
			set_character_flag = recent_minor_decision
			set_character_flag = do_not_disturb
			hidden_tooltip = { character_event = { id = 72999 days = 150 } } # Safety catch flag clearing
			
			hidden_tooltip = {
				character_event = {
					id = 72003
					days = 25
					random = 10
				}
				
				letter_event = { 
					id = 72109  
				}
			}
		}
		revoke_allowed = {
			always = no
		}
		ai_will_do = {
			factor = 1
			
			modifier = {
				factor = 0
				NOT = {
					wealth = 200
				}
			}
			modifier = {
				factor = 0
				trait = shy
			}
			modifier = {
				factor = 0
				NOT = { diplomacy = 10 }
			}	
			modifier = {
				factor = 0
				has_character_flag = recent_minor_decision
				NOT = {
					had_character_flag = {
						flag = recent_minor_decision
						days = 730
					}
				}
			}
		}
	}
	
	summer_fair = {
		potential = {
			is_ruler = yes
			prisoner = no
			NOT = {
				has_character_modifier = holding_summer_fair
			}
			NOT = {
				has_character_modifier = summer_fair_timer
			}
			num_of_vassals = 1
			NOT = { has_character_flag = do_not_disturb }
		}
		allow = {
			war = no
			any_demesne_title = {
				is_occupied = no
			}
			wealth = 25
			prisoner = no
			month = 4
			NOT = {
				month = 7
			}
		}
		effect = {
			wealth = -25
			add_character_modifier = {
				name = holding_summer_fair
				duration = -1
			}
			set_character_flag = recent_minor_decision
			set_character_flag = do_not_disturb
			hidden_tooltip = {
				character_event = {
					id = 74047
					days = 65
				}
				character_event = { id = 74050  }
			}
		}
		revoke_allowed = {
			always = no
		}
		ai_will_do = {
			factor = 1
			
			modifier = {
				factor = 0
				NOT = {
					wealth = 200
				}
			}

			modifier = {
				factor = 0
				trait = slothful
			}	
			
			modifier = {
				factor = 0
				NOT = { stewardship = 10 }
			}
			
			modifier = {
				factor = 0
				has_character_flag = recent_minor_decision
				NOT = {
					had_character_flag = {
						flag = recent_minor_decision
						days = 730
					}
				}
			}			
			
		}
	}
	
	hold_grand_hunt = {
		potential = {
			is_ruler = yes
			age = 16
			is_female = no
			prisoner = no
			NOR = {
				has_character_modifier = holding_grand_hunt
				has_character_flag = do_not_disturb
				culture_group = air_nomad_culture
				religion_group = air_religions
				has_landed_title = e_earth_kingdom
				has_landed_title = k_fire_nation
				has_landed_title = e_fire_empire
				
			}
		}
		allow = {
			war = no
			any_demesne_title = {
				is_occupied = no
			}
			month = 8
			wealth = 25
			NOT = { month = 10 }
			NOT = {	health_traits = 1 }
			prisoner = no
		}
		effect = {
			wealth = -25
			add_character_modifier = {
				name = holding_grand_hunt
				duration = -1
			}			
			set_character_flag = recent_minor_decision
			set_character_flag = do_not_disturb
			hidden_tooltip = { character_event = { id = 36999 days = 150 } } # Safety catch flag clearing
			hidden_tooltip = { 
				character_event = { id = 36090 days = 16 random = 25 }
				letter_event = { id = 36080  }
			}
		}
		revoke_allowed = {
			always = no
		}
		ai_will_do = {
			factor = 1
			
			modifier = {
				factor = 0
				NOT = {
					wealth = 200
				}
			}
			modifier = {
				factor = 0
				trait = craven
			}			
			modifier = {
				factor = 0
				NOT = {
					martial = 10
				}
			}
			modifier = {
				factor = 0
				has_character_flag = recent_minor_decision
				NOT = {
					had_character_flag = {
						flag = recent_minor_decision
						days = 730
					}
				}
			}
		}
	}
	
	hold_tiger_hunt = {
		potential = {
			has_dlc = "Rajas of India"
			is_ruler = yes
			age = 16
			prisoner = no
			num_of_vassals = 1
			capital_scope = {
				empire = { title = e_earth_kingdom }
			}
			NOR = {
				has_character_flag = do_not_disturb
				has_character_flag = holding_tiger_hunt
				has_character_modifier = hunt_timer
				culture_group = air_nomad_culture
				religion_group = air_religions
			}
		}
		allow = {
			war = no
			any_demesne_title = {
				is_occupied = no
			}
			NOT = { month = 10 }
			wealth = 25
			NOT = {	trait = incapable }
			prisoner = no
			NOT = { trait = airbender }
		}
		effect = {
			wealth = -25
			set_character_flag = holding_tiger_hunt
			set_character_flag = recent_minor_decision
			set_character_flag = do_not_disturb
			hidden_tooltip = { character_event = { id = RoI.2000 } }
		}
		revoke_allowed = {
			always = no
		}
		ai_will_do = {
			factor = 1
			
			modifier = {
				factor = 0
				NOT = {
					wealth = 200
				}
			}
			modifier = {
				factor = 0
				NOT = {
					martial = 10
				}
			}
			modifier = {
				factor = 0
				has_character_flag = recent_minor_decision
				NOT = {
					had_character_flag = {
						flag = recent_minor_decision
						days = 730
					}
				}
			}				
		}
	}

	commit_suicide = {
		potential = {
			age = 16
			trait = depressed
		}
		allow = {
			trait = depressed
		}
		effect = {
			prestige = -200
			death = { death_reason = death_suicide }
		}
		revoke_allowed = {
			always = no
		}
		ai_will_do = {
			factor = 0
		}
	}
	
	hold_diwali_feast_hindu = {
		potential = {
			has_dlc = "Rajas of India"
			is_ruler = yes
			is_feudal = yes
			prisoner = no
			NOT = { trait = incapable }
			NOT = { has_character_modifier = patron_kali }
			NOT = {
				has_character_modifier = holding_diwali_feast
			}
			NOT = {
				has_character_modifier = holding_kali_puja_feast
			}
			NOT = {
				has_character_modifier = large_feast_timer
			}
			NOT = {
				has_character_modifier = fabulous_feast
			}
			NOT = {
				has_character_flag = guest_diwali_feast_started
			}
			NOT = {
				liege = {
					has_character_modifier = holding_diwali_feast
					has_character_modifier = holding_kali_puja_feast
				}
			}
			num_of_vassals = 1
			NOT = { has_character_flag = do_not_disturb }
		}
		allow = {
			war = no
			any_demesne_title = {
				is_occupied = no
			}
			prisoner = no
			scaled_wealth = 0.2
			month = 9
			prestige = 100
		}
		effect = {
			scaled_wealth = -0.2
			add_character_modifier = {
				name = holding_diwali_feast
				duration = 365
			}
			set_character_flag = recent_minor_decision
			set_character_flag = do_not_disturb
			hidden_tooltip = { character_event = { id = RoI.1000 } }
		}
		revoke_allowed = {
			always = no
		}
		ai_will_do = {
			factor = 0.1
			modifier = {
				factor = 0
				NOT = {
					scaled_wealth = 2
				}
			}
			modifier = {
				factor = 0.5
				trait = shy
			}
			modifier = {
				factor = 0.5
				NOT = { diplomacy = 10 }
			}	
			modifier = {
				factor = 0
				has_character_flag = recent_minor_decision
				NOT = {
					had_character_flag = {
						flag = recent_minor_decision
						days = 730
					}
				}
			}	
			modifier = {
				factor = 0
				NOT = { age = 30 }
			}			
		}
	}

	hold_diwali_feast_kali_puja = {
		potential = {
			has_dlc = "Rajas of India"
			is_ruler = yes
			is_feudal = yes
			prisoner = no
			culture_group = outlaw_group
			NOT = { trait = incapable }
			OR = {
				has_character_modifier = patron_kali
				county = { de_jure_liege = e_fire_empire }
			}
			NOT = {
				has_character_modifier = holding_diwali_feast
			}
			NOT = {
				has_character_modifier = holding_kali_puja_feast
			}
			NOT = {
				has_character_modifier = large_feast_timer
			}
			NOT = {
				has_character_modifier = fabulous_feast
			}
			NOT = {
				has_character_flag = guest_diwali_feast_started
			}
			NOT = {
				liege = {
					has_character_modifier = holding_diwali_feast
					has_character_modifier = holding_kali_puja_feast
				}
			}			
			num_of_vassals = 1
			NOT = { has_character_flag = do_not_disturb }
		}
		allow = {
			war = no
			any_demesne_title = {
				is_occupied = no
			}
			prisoner = no
			scaled_wealth = 0.2
			month = 9
			prestige = 100
		}
		effect = {
			scaled_wealth = -0.2
			add_character_modifier = {
				name = holding_kali_puja_feast
				duration = 365
			}
			set_character_flag = recent_minor_decision
			set_character_flag = do_not_disturb
			hidden_tooltip = { character_event = { id = RoI.1000 } }
		}
		revoke_allowed = {
			always = no
		}
		ai_will_do = {
			factor = 0.1
			
			modifier = {
				factor = 0
				NOT = {
					scaled_wealth = 2
				}
			}
			modifier = {
				factor = 0.5
				trait = shy
			}
			modifier = {
				factor = 0.5
				NOT = { diplomacy = 10 }
			}	
			modifier = {
				factor = 0
				has_character_flag = recent_minor_decision
				NOT = {
					had_character_flag = {
						flag = recent_minor_decision
						days = 730
					}
				}
			}
			modifier = {
				factor = 0
				NOT = { age = 30 }
			}		
		}
	}

	find_guru = {
		potential = {
			age = 16
			is_ruler = yes
			is_feudal = yes
			prisoner = no
			NOT = { has_character_flag = looking_for_guru }
			NOT = { has_character_flag = found_guru }
			NOT = {
				any_courtier = {
					has_minor_title = title_guru
				}
			}
		}
		allow = {
			prisoner = no
			wealth = 50
			prestige = 300
		}
		effect = {
			wealth = -50
			set_character_flag = looking_for_guru
			character_event = { id = RoI.3000 }
		}
		revoke_allowed = {
			always = no
		}
		ai_will_do = {
			factor = 1
			
			modifier = {
				factor = 0
				trait = cynical
			}
			modifier = {
				factor = 0
				NOT = { wealth = 200 }
			}
		}
	}
}